{
  "project_info": {
    "project_number": "231326486247",
    "project_id": "shop-guantap",
    "storage_bucket": "shop-guantap.appspot.com"
  },
  "client": [
    {
      "client_info": {
        "mobilesdk_app_id": "1:231326486247:android:c7b2a0af06aea080f79c42",
        "android_client_info": {
          "package_name": "com.guantap.delivery"
        }
      },
      "oauth_client": [
        {
          "client_id": "231326486247-8ial71l4o97ek50jii7kas1c93gekeii.apps.googleusercontent.com",
          "client_type": 1,
          "android_info": {
            "package_name": "com.guantap.delivery",
            "certificate_hash": "a0c6402f9761671c2d4752406531ce7920fe39ca"
          }
        },
        {
          "client_id": "231326486247-36c54pvm18mj16b87uehsc08cnmvrr34.apps.googleusercontent.com",
          "client_type": 3
        }
      ],
      "api_key": [
        {
          "current_key": "AIzaSyCFRQTUs7s92WptEwjeLrh9TXt7KtG2Tp0"
        }
      ],
      "services": {
        "appinvite_service": {
          "other_platform_oauth_client": [
            {
              "client_id": "231326486247-36c54pvm18mj16b87uehsc08cnmvrr34.apps.googleusercontent.com",
              "client_type": 3
            }
          ]
        }
      }
    },
    {
      "client_info": {
        "mobilesdk_app_id": "1:231326486247:android:ae94ca97c0f1e0f7f79c42",
        "android_client_info": {
          "package_name": "com.guantap.restaurant"
        }
      },
      "oauth_client": [
        {
          "client_id": "231326486247-nsa8qbesp47vr79836cdi9radd33dhbb.apps.googleusercontent.com",
          "client_type": 1,
          "android_info": {
            "package_name": "com.guantap.restaurant",
            "certificate_hash": "a0c6402f9761671c2d4752406531ce7920fe39ca"
          }
        },
        {
          "client_id": "231326486247-36c54pvm18mj16b87uehsc08cnmvrr34.apps.googleusercontent.com",
          "client_type": 3
        }
      ],
      "api_key": [
        {
          "current_key": "AIzaSyCFRQTUs7s92WptEwjeLrh9TXt7KtG2Tp0"
        }
      ],
      "services": {
        "appinvite_service": {
          "other_platform_oauth_client": [
            {
              "client_id": "231326486247-36c54pvm18mj16b87uehsc08cnmvrr34.apps.googleusercontent.com",
              "client_type": 3
            }
          ]
        }
      }
    },
    {
      "client_info": {
        "mobilesdk_app_id": "1:231326486247:android:08ec9b6644825cb0f79c42",
        "android_client_info": {
          "package_name": "com.guantap.user"
        }
      },
      "oauth_client": [
        {
          "client_id": "231326486247-6rbml4519j1hahvtls6idg1t5bts90rc.apps.googleusercontent.com",
          "client_type": 1,
          "android_info": {
            "package_name": "com.guantap.user",
            "certificate_hash": "a0c6402f9761671c2d4752406531ce7920fe39ca"
          }
        },
        {
          "client_id": "231326486247-36c54pvm18mj16b87uehsc08cnmvrr34.apps.googleusercontent.com",
          "client_type": 3
        }
      ],
      "api_key": [
        {
          "current_key": "AIzaSyCFRQTUs7s92WptEwjeLrh9TXt7KtG2Tp0"
        }
      ],
      "services": {
        "appinvite_service": {
          "other_platform_oauth_client": [
            {
              "client_id": "231326486247-36c54pvm18mj16b87uehsc08cnmvrr34.apps.googleusercontent.com",
              "client_type": 3
            }
          ]
        }
      }
    }
  ],
  "configuration_version": "1"
}